First column is rho, second is the eigenvector 
0.02 0.1004
0.04 0.200199
0.06 0.2988
0.08 0.395619
0.1 0.49009
0.12 0.58167
0.14 0.669845
0.16 0.754133
0.18 0.83409
0.2 0.909314
0.22 0.979447
0.24 1.04418
0.26 1.10325
0.28 1.15644
0.3 1.20361
0.32 1.24464
0.34 1.27948
0.36 1.30812
0.38 1.33061
0.4 1.34704
0.42 1.35754
0.44 1.36229
0.46 1.36152
0.48 1.35545
0.5 1.34437
0.52 1.3286
0.54 1.30844
0.56 1.28425
0.58 1.25639
0.6 1.22521
0.62 1.1911
0.64 1.15442
0.66 1.11554
0.68 1.07483
0.7 1.03264
0.72 0.989317
0.74 0.945188
0.76 0.900566
0.78 0.855742
0.8 0.810992
0.82 0.766567
0.84 0.722698
0.86 0.679593
0.88 0.637438
0.9 0.596395
0.92 0.556605
0.94 0.518188
0.96 0.481241
0.98 0.445842
1 0.41205
1.02 0.379907
1.04 0.349438
1.06 0.320652
1.08 0.293545
1.1 0.268101
1.12 0.244293
1.14 0.222084
1.16 0.201429
1.18 0.182277
1.2 0.164568
1.22 0.148243
1.24 0.133234
1.26 0.119475
1.28 0.106896
1.3 0.0954268
1.32 0.0849981
1.34 0.0755406
1.36 0.0669863
1.38 0.0592692
1.4 0.0523252
1.42 0.0460929
1.44 0.0405135
1.46 0.0355312
1.48 0.0310932
1.5 0.0271497
1.52 0.0236542
1.54 0.0205633
1.56 0.0178367
1.58 0.0154372
1.6 0.0133304
1.62 0.011485
1.64 0.00987208
1.66 0.00846546
1.68 0.00724133
1.7 0.00617814
1.72 0.00525643
1.74 0.0044587
1.76 0.00376922
1.78 0.00317388
1.8 0.00266006
1.82 0.00221647
1.84 0.00183301
1.86 0.0015006
1.88 0.00121111
1.9 0.000957164
1.92 0.000732026
1.94 0.000529482
1.96 0.000343689
1.98 0.000169038
